TimeStamp,Order ID,Shipping Name,Shipping Address 1,Shipping Address 2,Shipping City,Shipping State,Shipping Zipcode,Shipping Country,Shipping Phone,Shipping Email,Item SKU,Size,Quantity
removed orders through 10/08 - Vincent,,,,,,,,,,,,,
removed orders through 10/10 - Vincent,,,,,,,,,,,,,
"Mon Oct 12, 2015 8:12:25 am",463991,Test Test,4330 Gaines Ranch Loop Suite 120,,Austin,TX,78735,United States,9724087400,elizabeth.azide@nativecommerce.com,61099693,S,1
"Tue Oct 13, 2015 3:27:37 pm",467039,"Test Test","4250 Putting Green",,"San Antonio",TX,78217,"United States",830-496-0456,andrew@nativecommerce.com,61099693,S,1
"Tue Oct 13, 2015 3:27:37 pm",467039,"Test Test","4250 Putting Green",,"San Antonio",TX,78217,"United States",830-496-0456,andrew@nativecommerce.com,61099693,M,1
"Tue Oct 13, 2015 3:27:37 pm",467039,"Test Test","4250 Putting Green",,"San Antonio",TX,78217,"United States",830-496-0456,andrew@nativecommerce.com,61099693,L,1
"Tue Oct 13, 2015 3:27:37 pm",467039,"Test Test","4250 Putting Green",,"San Antonio",TX,78217,"United States",830-496-0456,andrew@nativecommerce.com,61099693,XL,1
"Tue Oct 13, 2015 3:27:37 pm",467039,"Test Test","4250 Putting Green",,"San Antonio",TX,78217,"United States",830-496-0456,andrew@nativecommerce.com,61099693,XXL,1
"Tue Oct 13, 2015 3:27:37 pm",467039,"Test Test","4250 Putting Green",,"San Antonio",TX,78217,"United States",830-496-0456,andrew@nativecommerce.com,61099693,XXXL,1
"Wed Oct 14, 2015 9:34:44 am",469255,"Test Test","4330 Gaines Ranch Loop",,Austin,TX,78735,"United States",555-555-5555,jessica@nativecommerce.com,61099693,S,1
"Thu Oct 15, 2015 8:36:53 am",472322,"test test","4330 Gaines Ranch Loop",,Austin,TX,78735,"United States",5127080472,davin@nativecommerce.com,61099693,S,1
"Thu Oct 15, 2015 8:38:29 am",472328,"test test","4330 Gaines Ranch Loop",,Austin,TX,78735,"United States",5127080472,davin@nativecommerce.com,61099693,S,1
"Thu Oct 15, 2015 9:55:40 am",472491,"Test Test","4250 Putting Green",,"San Antonio",TX,78217,"United States",830-496-0456,andrew@nativecommerce.com,61099693,XXXL,1
"Thu Oct 15, 2015 10:10:27 am",472512,"Test Test","4250 Putting Green",,"San Antonio",TX,78217,"United States",830-496-0456,andrew@nativecommerce.com,61099693,XXXL,1
"Thu Oct 15, 2015 10:15:17 am",472517,"Test Test","4250 Putting Green",,"San Antonio",TX,78217,"United States",830-496-0456,andrew@nativecommerce.com,61099693,XXXL,1
"Thu Oct 15, 2015 10:15:28 am",472518,"test test","4330 Gaines Ranch Loop",,Austin,TX,78735,"United States",5127080472,davin@nativecommerce.com,61099693,S,1
"Thu Oct 15, 2015 10:15:43 am",472522,"test test","1634 allegro sq",j,"san gabriel",CA,91776,"United States",6262304005,lim_courier@yahoo.com,61099693,M,2
"Thu Oct 15, 2015 10:17:55 am",472524,"test test","1634 allegro sq #j",,"san gabriel",CA,91776,"United States",6262304005,lim_courier@yahoo.com,61099693,L,2
"Thu Oct 15, 2015 10:21:30 am",472531,"Test Test","4250 Putting Green",,"San Antonio",TX,78217,"United States",830-496-0456,andrew@nativecommerce.com,61099693,XXXL,1
"Thu Oct 15, 2015 10:22:57 am",472533,"Test Test","4330 gaines ranch",,Austin,TX,78749,"United States",test,tony@nativecommerce.com,61099693,M,1
"Thu Oct 15, 2015 10:23:48 am",472538,"test test","1634 allegro sq",,"san gabriel",CA,91776,"United States",6262304005,lim_courier@yahoo.com,61099693,L,1
"Thu Oct 15, 2015 11:41:13 am",472650,"Test Test","4330 Gaines Ranch Loop","Suite 120",Austin,TX,78735,"United States",5123663332,sarah@nativecommerce.com,61099693,XL,1
"Thu Oct 15, 2015 11:43:48 am",472670,"test test","4330 Gaines Ranch Loop",,Austin,TX,78735,"United States",5127080472,davin@nativecommerce.com,61099693,S,1
"Thu Oct 15, 2015 11:50:41 am",472709,"Mitzi Kane","1520 Blaine Ave",#6,"Racine, WI",WI,53405,"United States",4148076611,stbrick@msn.com,61099693,XL,1
"Thu Oct 15, 2015 11:50:41 am",472709,"Mitzi Kane","1520 Blaine Ave",#6,"Racine, WI",WI,53405,"United States",4148076611,stbrick@msn.com,61099693,XXL,1
